kind: manual_second

depends:
- dependency: base-tool_chain_pass1
  scope: Build
- dependency: expect
- dependency: tcl

context: tool_chain_pass1

provides: dejagnu

plugin_variables:
  join_strategy: Join
  variables:
    config_configure-commands: |
      mkdir -p /sources/build
      cd /sources/build

      ../configure --prefix=/usr
      # makeinfo --html --no-split -o doc/dejagnu.html ../doc/dejagnu.texi
      # makeinfo --plaintext       -o doc/dejagnu.txt  ../doc/dejagnu.texi

    config_build-commands: |
      make -j
    config_install-commands: |
      mkdir -p "%{install-root}"
      make DESTDIR="%{install-root}" install

sources:
- kind: tar
  url: https://ftp.gnu.org/gnu/dejagnu/dejagnu-1.6.3.tar.gz
  sha: 87daefacd7958b4a69f88c6856dbd1634261963c414079d0c371f589cd66a2e3
  unpack: dejagnu-1.6.3
