kind: manual

depends:
- dependency: tarball
  scope: Build
- dependency: binutils-pass1
  scope: Build
- dependency: gcc-pass1
  scope: Build
- dependency: linux-headers
  location: /grdroot/
  scope: Build
- dependency: glibc-pass1
  location: /grdroot/
  scope: Build
- dependency: libstdcpp-pass1
  location: /grdroot/
  scope: Build

context: tool_chain_pass1

provides: diffutils-pass1

plugin_variables:
  join_strategy: Join
  variables:
    config_configure-commands: |
      cd /sources/
      mkdir -vp build
      cd       build
      mkdir -p /tools/usr/include/
      mkdir -p /tools/include/

      ../configure --prefix=/usr   \
            --host=%{grd_tgt} \
            --build=$(../build-aux/config.guess)

    config_build-commands: |
      cd /sources/build
      set +h
      echo bob4
      make -j

    config_install-commands: |
      cd /sources/build
      mkdir -p "%{install-root}"
      make DESTDIR="%{install-root}" install

sources:
- kind: tar
  url: https://ftp.gnu.org/gnu/diffutils/diffutils-3.10.tar.xz
  sha: 90e5e93cc724e4ebe12ede80df1634063c7a855692685919bfe60b556c9bd09e
  unpack: diffutils-3.10