kind: manual

depends:
- dependency: tarball
  scope: Build
- dependency: binutils-pass1
  scope: Build
- dependency: gcc-pass1
  scope: Build
- dependency: linux-headers
  location: /grdroot/
  scope: Build
- dependency: glibc-pass1
  location: /grdroot/
  scope: Build
- dependency: libstdcpp-pass1
  location: /grdroot/
  scope: Build

context: tool_chain_pass1

provides: findutils-pass1

plugin_variables:
  join_strategy: Join
  variables:
    config_configure-commands: |
      cd /sources/
      mkdir -vp build
      cd       build

      ../configure --prefix=/usr            \
            --localstatedir=/var/lib/locate \
            --host=%{grd_tgt}               \
            --build=$(../build-aux/config.guess)

    config_build-commands: |
      cd /sources/build
      set +h
      make -j

    config_install-commands: |
      cd /sources/build
      mkdir -p "%{install-root}"
      make DESTDIR="%{install-root}" install

sources:
- kind: tar
  url: https://ftp.gnu.org/gnu/findutils/findutils-4.9.0.tar.xz
  sha: a2bfb8c09d436770edc59f50fa483e785b161a3b7b9d547573cb08065fd462fe
  unpack: findutils-4.9.0