kind: manual_second

depends:
- dependency: gcc
  scope: Build
- dependency: bash
  scope: Build
- dependency: coreutils
  scope: Build
- dependency: sed
  scope: Build
- dependency: grep
  scope: Build
- dependency: gawk-pass1
  scope: Build
- dependency: diffutils-pass1
  scope: Build
- dependency: m4
  scope: Build
- dependency: make
  scope: Build

context: tool_chain_pass1

provides: flex

plugin_variables:
  join_strategy: Join
  variables:
    config_configure-commands: |
      mkdir -p /sources/build
      cd /sources/build

      ../configure --prefix=/usr \
            --docdir=/usr/share/doc/flex-2.6.4 \
            --disable-static

    config_build-commands: |
      make -j
    config_install-commands: |
      mkdir -p "%{install-root}"
      make DESTDIR="%{install-root}" install
      ln -sv flex   %{install-root}/usr/bin/lex

sources:
- kind: tar
  url: https://github.com/westes/flex/releases/download/v2.6.4/flex-2.6.4.tar.gz
  sha: e87aae032bf07c26f85ac0ed3250998c37621d95f8bd748b31f15b33c45ee995
  unpack: flex-2.6.4
