kind: manual_second

depends:
- dependency: gcc
  scope: Build
- dependency: autoconf
  scope: Build
- dependency: automake
  scope: Build
- dependency: xz
  scope: Build
- dependency: m4
  scope: Build
- dependency: perl-pass3
  scope: Build
- dependency: glibc
- dependency: bash
- dependency: coreutils
- dependency: sed
  scope: Build
- dependency: file
  scope: Build
- dependency: grep
  scope: Build
- dependency: gawk-pass1
  scope: Build
- dependency: diffutils-pass1
  scope: Build
- dependency: libtool
- dependency: make
- dependency: findutils-pass1
  scope: Build

context: tool_chain_pass2

provides: gettext

plugin_variables:
  join_strategy: Join
  variables:
    config_configure-commands: |
      cd /sources/
      mkdir -vp build
      cd       build

      ../configure --prefix=/usr --disable-shared

    config_build-commands: |
      cd /sources/build
      set +h
      echo bob4
      make -j

    config_install-commands: |
      cd /sources/build
      mkdir -p "%{install-root}/usr/bin"
      make DESTDIR="%{install-root}" install

sources:
- kind: tar
  url: https://ftp.gnu.org/gnu/gettext/gettext-0.22.tar.xz
  sha: 0e60393a47061567b46875b249b7d2788b092d6457d656145bb0e7e6a3e26d93
  unpack: gettext-0.22

