kind: manual_second

depends:
- dependency: gcc
  scope: Build
- dependency: bash
  scope: Build
- dependency: coreutils
  scope: Build
- dependency: sed
  scope: Build
- dependency: grep
  scope: Build
- dependency: gawk-pass1
  scope: Build
- dependency: diffutils-pass1
  scope: Build
- dependency: m4
  scope: Build
- dependency: make
  scope: Build

context: tool_chain_pass1

provides: gzip

plugin_variables:
  join_strategy: Join
  variables:
    config_configure-commands: |
      cd /sources/
      mkdir -vp build
      cd build

      ../configure --prefix=/usr --disable-dependency-tracking

    config_build-commands: |
      cd /sources/build
      set +h
      make -j

    config_install-commands: |
      cd /sources/build
      mkdir -p "%{install-root}"
      make DESTDIR="%{install-root}" install

sources:
- kind: tar
  url: https://ftp.gnu.org/gnu/gzip/gzip-1.12.tar.xz
  sha: ce5e03e519f637e1f814011ace35c4f87b33c0bbabeec35baf5fbd3479e91956
  unpack: gzip-1.12
