kind: manual

depends:
- dependency: tarball
  scope: Build
- dependency: binutils-pass1
  scope: Build
- dependency: gcc-pass1
  scope: Build
- dependency: linux-headers
  location: /grdroot/
  scope: Build
- dependency: glibc-pass1
  location: /grdroot/
  scope: Build
- dependency: libstdcpp-pass1
  location: /grdroot/
  scope: Build
- dependency: m4-pass1
  location: /grdroot/
  scope: Build

context: tool_chain_pass1

provides: gzip-pass1

plugin_variables:
  join_strategy: Join
  variables:
    config_configure-commands: |
      cd /sources/
      mkdir -vp build
      cd       build

      ../configure --prefix=/usr   \
        --host=%{grd_tgt} \

    config_build-commands: |
      cd /sources/build
      set +h
      echo bob4
      make -j

    config_install-commands: |
      cd /sources/build
      mkdir -p "%{install-root}"
      make DESTDIR="%{install-root}" install

sources:
- kind: tar
  url: https://ftp.gnu.org/gnu/gzip/gzip-1.12.tar.xz
  sha: ce5e03e519f637e1f814011ace35c4f87b33c0bbabeec35baf5fbd3479e91956
  unpack: gzip-1.12