kind: manual

provides: linux-headers

context: tool_chain_pass1

plugin_variables:
  join_strategy: Join
  variables:
    config_install-commands: |
      make mrproper
      make headers
      find usr/include -type f ! -name '*.h' -delete

      mkdir -vp %{install-root}/usr/
      cp -rv usr/include %{install-root}/usr

sources:
- kind: tar
  url: https://www.kernel.org/pub/linux/kernel/v5.x/linux-5.5.3.tar.xz
  sha: 2bef3edcf44c746383045f4a809b2013e18c52319c827875ed8e89138951cab2
  unpack: linux-5.5.3