kind: manual

depends:
- dependency: tarball
  scope: Build
- dependency: binutils-pass1
  location: /grdroot/
  scope: Build
- dependency: gcc-pass1
  location: /grdroot/
  scope: Build
- dependency: linux-headers
  location: /grdroot/
  scope: Build
- dependency: glibc-pass1
  location: /grdroot/
  scope: Build
- dependency: libstdcpp-pass1
  location: /grdroot/
  scope: Build

context: tool_chain_pass1

provides: ncurses-pass1

plugin_variables:
  join_strategy: Join
  variables:
    config_configure-commands: |
      cd /sources/
      mkdir -vp build
      cd       build
      mkdir -p /tools/usr/include/
      mkdir -p /tools/include/

      ../configure
      make -C include
      make -C progs tic


      ../configure --prefix=/usr         \
            --host=%{grd_tgt}            \
            --build=$(./config.guess)    \
            --mandir=/usr/share/man      \
            --with-manpage-format=normal \
            --with-shared                \
            --without-normal             \
            --with-cxx-shared            \
            --without-debug              \
            --without-ada                \
            --disable-stripping          \
            --enable-widec 

    config_build-commands: |
      cd /sources/build
      set +h
      echo bob4
      make -j

    config_install-commands: |
      cd /sources/build
      mkdir -p "%{install-root}"
      make DESTDIR="%{install-root}" install

sources:
- kind: tar
  url: https://ftp.gnu.org/gnu/ncurses/ncurses-6.4.tar.gz
  sha: 6931283d9ac87c5073f30b6290c4c75f21632bb4fc3603ac8100812bed248159
  unpack: ncurses-6.4