kind: manual_second

depends:
- dependency: gcc
  scope: Build
- dependency: python
  scope: Build
- dependency: bash
  scope: Build
- dependency: make
  scope: Build
- dependency: coreutils
  scope: Build
- dependency: sed
  scope: Build
- dependency: file
  scope: Build
- dependency: grep
  scope: Build
- dependency: gawk-pass1
  scope: Build
- dependency: findutils-pass1
  scope: Build
- dependency: diffutils-pass1
  scope: Build
- dependency: expat
  scope: Build
- dependency: pkgconf
  scope: Build
- dependency: openssl
  scope: Build
- dependency: python-flit-core
  scope: Build
- dependency: python-installer
  scope: Build
- dependency: python-build
  scope: Build
- dependency: python-pyproject_hooks
  scope: Build

context: tool_chain_pass1

provides: python-packaging

plugin_variables:
  join_strategy: Join
  variables:
    python: python -P
    build-args: "--no-isolation --wheel --outdir %{dist-dir}"
    dist-dir: "%{build-root}/dist"
    build-root: /sources/
    config_build-commands: |
      cd /sources/
      export PYTHONPATH="/sources/src"
      %{python} -mbuild %{build-args} . 

    config_install-commands: |
      mkdir -p %{install-root}
      %{python} -minstaller %{dist-dir}/*.whl --destdir %{install-root}

sources:
- kind: tar
  url: https://files.pythonhosted.org/packages/fb/2b/9b9c33ffed44ee921d0967086d653047286054117d584f1b1a7c22ceaf7b/packaging-23.2.tar.gz
  sha: 048fb0e9405036518eaaf48a55953c750c11e1a1b68e0dd1a9d62ed0c092cfc5
  unpack: packaging-23.2
