kind: manual_second

depends:
- dependency: gcc
  scope: Build
- dependency: python
  scope: Build
- dependency: bash
  scope: Build
- dependency: make
  scope: Build
- dependency: coreutils
  scope: Build
- dependency: sed
  scope: Build
- dependency: file
  scope: Build
- dependency: grep
  scope: Build
- dependency: gawk-pass1
  scope: Build
- dependency: findutils-pass1
  scope: Build
- dependency: diffutils-pass1
  scope: Build
- dependency: expat
  scope: Build
- dependency: pkgconf
  scope: Build
- dependency: openssl
  scope: Build

context: tool_chain_pass1

provides: python-flit-core

plugin_variables:
  join_strategy: Join
  variables:
    config_configure-commands: |
      cd /sources/
      rm -r flit_core/vendor
      python -m flit_core.wheel

    config_install-commands: |
      mkdir -p %{install-root}
      python bootstrap_install.py dist/*.whl --install-root "%{install-root}"
      python3 -m compileall -o 0 -o 1 -o 2 "%{install-root}"

sources:
- kind: tar
  url: https://pypi.org/packages/source/f/flit-core/flit_core-3.9.0.tar.gz
  sha: 72ad266176c4a3fcfab5f2930d76896059851240570ce9a98733b658cb786eba
  unpack: flit_core-3.9.0
