kind: manual_second

depends:
- dependency: gcc
  scope: Build
- dependency: python
  scope: Build
- dependency: bash
  scope: Build
- dependency: make
  scope: Build
- dependency: coreutils
  scope: Build
- dependency: sed
  scope: Build
- dependency: file
  scope: Build
- dependency: grep
  scope: Build
- dependency: gawk-pass1
  scope: Build
- dependency: findutils-pass1
  scope: Build
- dependency: diffutils-pass1
  scope: Build
- dependency: expat
  scope: Build
- dependency: pkgconf
  scope: Build
- dependency: openssl
  scope: Build
- dependency: python-flit-core
  scope: Build
- dependency: python-installer
  scope: Build
- dependency: python-build
  scope: Build
- dependency: python-pyproject_hooks
  scope: Build
- dependency: python-packaging
  scope: Build

context: tool_chain_pass1

provides: python-wheel

plugin_variables:
  join_strategy: Join
  variables:
    python: python -P
    build-args: "--no-isolation --wheel --outdir %{dist-dir}"
    dist-dir: "%{build-root}/dist"
    build-root: /sources/
    config_build-commands: |
      cd /sources/
      export PYTHONPATH="/sources/src"
      %{python} -mbuild %{build-args} .

    config_install-commands: |
      mkdir -p %{install-root}
      %{python} -minstaller %{dist-dir}/*.whl --destdir %{install-root}

sources:
- kind: tar
  url: https://pypi.org/packages/source/w/wheel/wheel-0.41.3.tar.gz
  sha: 4d4987ce51a49370ea65c0bfd2234e8ce80a12780820d9dc462597a6e60d0841
  unpack: wheel-0.41.3
