kind: manual_second

depends:
- dependency: base-tool_chain_pass1
  scope: Build

context: tool_chain_pass1

provides: tcl

plugin_variables:
  join_strategy: Join
  variables:
    srcdir: /sources
    config_configure-commands: |
      cd /sources/unix
      ./configure --prefix=/usr           \
            --mandir=/usr/share/man
      

    config_build-commands: |
      make -j

      sed -e "s|%{srcdir}/unix|/usr/lib|" \
          -e "s|%{srcdir}|/usr/include|"  \
          -i tclConfig.sh

      sed -e "s|%{srcdir}/unix/pkgs/tdbc1.1.5|/usr/lib/tdbc1.1.5|" \
          -e "s|%{srcdir}/pkgs/tdbc1.1.5/generic|/usr/include|"    \
          -e "s|%{srcdir}/pkgs/tdbc1.1.5/library|/usr/lib/tcl8.6|" \
          -e "s|%{srcdir}/pkgs/tdbc1.1.5|/usr/include|"            \
          -i pkgs/tdbc1.1.5/tdbcConfig.sh

      sed -e "s|%{srcdir}/unix/pkgs/itcl4.2.3|/usr/lib/itcl4.2.3|" \
          -e "s|%{srcdir}/pkgs/itcl4.2.3/generic|/usr/include|"    \
          -e "s|%{srcdir}/pkgs/itcl4.2.3|/usr/include|"            \
          -i pkgs/itcl4.2.3/itclConfig.sh

    config_install-commands: |
      mkdir -p "%{install-root}"
      make DESTDIR="%{install-root}" install
      make DESTDIR="%{install-root}" install-private-headers
      ln -sfv tclsh8.6 %{install-root}/usr/bin/tclsh

      rm -rf %{install-root}/usr/share/man/

sources:
- kind: tar
  url: https://downloads.sourceforge.net/tcl/tcl8.6.13-src.tar.gz
  sha: 43a1fae7412f61ff11de2cfd05d28cfc3a73762f354a417c62370a54e2caf066
  unpack: tcl8.6.13
